Week 3 Notes
…
str(newdf$total_2008)

##  num [1:2101] 731 263 80 638 333 536 610 490 585 450 ...

Filtering, Selecting, Grouping, and Summarizing

A basic operation we do a lot is to filter the data so that we are working with a subset of all that we have.

We can do this with the filter() function, part of the dplyr package (in the tidyverse collection of packages).

# Let's say we want to look at the schools with div_num values less than 50
newdf %>% filter(div_num < 50)

## # A tibble: 800 x 137
##    sch_id div_num div_name school_num school_name school_name2 type0809
##    <chr>    <dbl> <chr>    <chr>      <chr>       <chr>        <chr>   
##  1 001-0~       1 Accomac~ "0070\xa0" NANDUA HIGH <NA>         SCH-HIGH
##  2 001-0~       1 Accomac~ "0080\xa0" CHINCOTEAG~ <NA>         SCH-ELEM
##  3 001-0~       1 Accomac~ "0530\xa0" TANGIER CO~ <NA>         SCH-COMB
##  4 001-0~       1 Accomac~ "0540\xa0" ARCADIA HI~ <NA>         SCH-HIGH
##  5 001-0~       1 Accomac~ "0580\xa0" CHINCOTEAG~ <NA>         SCH-COMB
##  6 001-0~       1 Accomac~ "0590\xa0" PUNGOTEAGU~ <NA>         SCH-ELEM
##  7 001-0~       1 Accomac~ "0600\xa0" KEGOTANK E~ <NA>         SCH-ELEM
##  8 001-0~       1 Accomac~ "0701\xa0" ACCAWMACKE~ <NA>         SCH-ELEM
##  9 001-0~       1 Accomac~ "0702\xa0" METOMPKIN ~ <NA>         SCH-ELEM
## 10 001-0~       1 Accomac~ "0703\xa0" NANDUA MID~ <NA>         SCH-MID 
## # ... with 790 more rows, and 130 more variables: lowgrade_2008 <chr>,
## #   higrade_2008 <chr>, totalFT_2008 <dbl>, total_2008 <dbl>, snp_0809 <chr>,
## #   free_elig_0809 <chr>, free_per_0809 <chr>, red_elig_0809 <chr>,
## #   red_per_0809 <chr>, totalFRL_0809 <dbl>, totalper_0809 <dbl>,
## #   type0910 <chr>, lowgrade_2009 <chr>, higrade_2009 <chr>,
## #   totalFT_2009 <dbl>, total_2009 <dbl>, snp_0910 <chr>, free_elig_0910 <chr>,
## #   free_per_0910 <chr>, red_elig_0910 <chr>, red_per_0910 <chr>,
## #   totalFRL_09010 <dbl>, totalper_0910 <dbl>, type1011 <chr>,
## #   lowgrade_2010 <chr>, higrade_2010 <chr>, totalFT_2010 <dbl>,
…
# Or, if we want to look at schools where the highest grade in 2008 was grade five, we can try:
newdf %>% filter(higrade_2008 == "5") # this returns a subsetted dataframe with 878 rows

## # A tibble: 878 x 137
##    sch_id div_num div_name school_num school_name school_name2 type0809
##    <chr>    <dbl> <chr>    <chr>      <chr>       <chr>        <chr>   
##  1 001-0~       1 Accomac~ "0080\xa0" CHINCOTEAG~ <NA>         SCH-ELEM
##  2 001-0~       1 Accomac~ "0590\xa0" PUNGOTEAGU~ <NA>         SCH-ELEM
##  3 001-0~       1 Accomac~ "0600\xa0" KEGOTANK E~ <NA>         SCH-ELEM
##  4 001-0~       1 Accomac~ "0701\xa0" ACCAWMACKE~ <NA>         SCH-ELEM
##  5 001-0~       1 Accomac~ "0702\xa0" METOMPKIN ~ <NA>         SCH-ELEM
##  6 002-0~       2 Albemar~ "0010\xa0" HOLLYMEAD ~ <NA>         SCH-ELEM
##  7 002-0~       2 Albemar~ "0030\xa0" SCOTTSVILL~ <NA>         SCH-ELEM
##  8 002-0~       2 Albemar~ "0040\xa0" MARY CARR ~ <NA>         SCH-ELEM
##  9 002-0~       2 Albemar~ "0100\xa0" BROADUS WO~ <NA>         SCH-ELEM
## 10 002-0~       2 Albemar~ "0150\xa0" PAUL H CAL~ <NA>         SCH-ELEM
## # ... with 868 more rows, and 130 more variables: lowgrade_2008 <chr>,
## #   higrade_2008 <chr>, totalFT_2008 <dbl>, total_2008 <dbl>, snp_0809 <chr>,
## #   free_elig_0809 <chr>, free_per_0809 <chr>, red_elig_0809 <chr>,
## #   red_per_0809 <chr>, totalFRL_0809 <dbl>, totalper_0809 <dbl>,
## #   type0910 <chr>, lowgrade_2009 <chr>, higrade_2009 <chr>,
## #   totalFT_2009 <dbl>, total_2009 <dbl>, snp_0910 <chr>, free_elig_0910 <chr>,
## #   free_per_0910 <chr>, red_elig_0910 <chr>, red_per_0910 <chr>,
## #   totalFRL_09010 <dbl>, totalper_0910 <dbl>, type1011 <chr>,
## #   lowgrade_2010 <chr>, higrade_2010 <chr>, totalFT_2010 <dbl>,
…
## Note that we had to set it equal to the character value "5" rather than the numeric value 5. Why?

# If we wanted to filter on numeric values instead, we would want to do something like this:
newdf %>% 
  mutate(higrade_2008 = as.numeric(higrade_2008)) %>% 
  filter(higrade_2008 == 5) # again, this returns a subsetted dataframe with 878 rows

## Warning in mask$eval_all_mutate(dots[[i]]): NAs introduced by coercion

## # A tibble: 878 x 137
##    sch_id div_num div_name school_num school_name school_name2 type0809
##    <chr>    <dbl> <chr>    <chr>      <chr>       <chr>        <chr>   
##  1 001-0~       1 Accomac~ "0080\xa0" CHINCOTEAG~ <NA>         SCH-ELEM
##  2 001-0~       1 Accomac~ "0590\xa0" PUNGOTEAGU~ <NA>         SCH-ELEM
##  3 001-0~       1 Accomac~ "0600\xa0" KEGOTANK E~ <NA>         SCH-ELEM
##  4 001-0~       1 Accomac~ "0701\xa0" ACCAWMACKE~ <NA>         SCH-ELEM
##  5 001-0~       1 Accomac~ "0702\xa0" METOMPKIN ~ <NA>         SCH-ELEM
##  6 002-0~       2 Albemar~ "0010\xa0" HOLLYMEAD ~ <NA>         SCH-ELEM
##  7 002-0~       2 Albemar~ "0030\xa0" SCOTTSVILL~ <NA>         SCH-ELEM
##  8 002-0~       2 Albemar~ "0040\xa0" MARY CARR ~ <NA>         SCH-ELEM
##  9 002-0~       2 Albemar~ "0100\xa0" BROADUS WO~ <NA>         SCH-ELEM
## 10 002-0~       2 Albemar~ "0150\xa0" PAUL H CAL~ <NA>         SCH-ELEM
## # ... with 868 more rows, and 130 more variables: lowgrade_2008 <chr>,
## #   higrade_2008 <dbl>, totalFT_2008 <dbl>, total_2008 <dbl>, snp_0809 <chr>,
## #   free_elig_0809 <chr>, free_per_0809 <chr>, red_elig_0809 <chr>,
## #   red_per_0809 <chr>, totalFRL_0809 <dbl>, totalper_0809 <dbl>,
## #   type0910 <chr>, lowgrade_2009 <chr>, higrade_2009 <chr>,
## #   totalFT_2009 <dbl>, total_2009 <dbl>, snp_0910 <chr>, free_elig_0910 <chr>,
## #   free_per_0910 <chr>, red_elig_0910 <chr>, red_per_0910 <chr>,
## #   totalFRL_09010 <dbl>, totalper_0910 <dbl>, type1011 <chr>,
## #   lowgrade_2010 <chr>, higrade_2010 <chr>, totalFT_2010 <dbl>,
…
